1.0,0.243956059217453,0.265689879655838,-43.34949493408203
1.0,0.2271062433719635,0.5152625441551208,-50.92259216308594
1.0,0.33797314763069153,0.6476190686225891,-51.57011413574219
1.0,0.45079368352890015,0.6918193101882935,-45.65650939941406
1.0,0.6659340858459473,0.3755800127983093,-34.54077911376953
1.0,0.6590964794158936,0.627106249332428,-27.531055450439453
1.0,0.6197802424430847,0.6669108867645264,-27.410350799560547
1.0,0.2122100293636322,0.4058608412742615,-31.504161834716797
1.0,0.3052503168582916,0.6244200468063354,-32.57255554199219
1.0,0.6200244426727295,0.6673992872238159,-27.351951599121094
1.0,0.2818070948123932,0.6100122332572937,-19.84920883178711
1.0,0.6654456853866577,0.5995116233825684,-15.050689697265625
1.0,0.6820513010025024,0.43369966745376587,-15.604053497314453
1.0,0.42881566286087036,0.2151404321193695,-17.116390228271484
1.0,0.6283272504806519,0.6456654667854309,-14.86012077331543
1.0,0.6776556968688965,0.5113553404808044,-8.991260528564453
1.0,0.5533577799797058,0.24713066220283508,-3.879899501800537
1.0,0.670573890209198,0.5692307949066162,-2.580483913421631
1.0,0.6805860996246338,0.5294261574745178,-2.704861640930176
1.0,0.40903544425964355,0.6764346957206726,-1.5821318626403809
1.0,0.654212474822998,0.3413919508457184,2.964362859725952
1.0,0.2507936656475067,0.279853492975235,6.998870849609375
1.0,0.6952381134033203,0.5064713358879089,9.786075592041016
1.0,0.5892552137374878,0.6776556968688965,10.400405883789062
1.0,0.2888889014720917,0.6144078373908997,11.486438751220703
1.0,0.5626373887062073,0.25738707184791565,15.042366027832031
1.0,0.21391943097114563,0.47252750396728516,18.522241592407227
1.0,0.6857143044471741,0.444444477558136,22.170541763305664
1.0,0.5306471586227417,0.6937729120254517,23.14998435974121
1.0,0.23321124911308289,0.5274725556373596,24.49494743347168
1.0,0.541147768497467,0.24053725600242615,27.474470138549805
1.0,0.2986569106578827,0.6170940399169922,30.313302993774414
1.0,0.6219780445098877,0.30207571387290955,34.17833709716797
1.0,0.4981685280799866,0.6942613124847412,35.815773010253906
1.0,0.22051283717155457,0.4730159044265747,37.32505798339844
1.0,0.4830281138420105,0.2202686369419098,39.74504852294922
1.0,0.4007326364517212,0.678144097328186,42.43540954589844
1.0,0.5870574116706848,0.26129427552223206,46.526390075683594
1.0,0.4363858699798584,0.6884005069732666,48.58184814453125
1.0,0.2180708348751068,0.3914530277252197,50.32862091064453
1.0,0.5557997822761536,0.24615386128425598,52.65940856933594
1.0,0.4652014970779419,0.6849817037582397,54.775360107421875
1.0,0.4891331195831299,0.2261294424533844,58.64495849609375
1.0,0.44884008169174194,0.6820513010025024,61.10833740234375
1.0,0.2556776702404022,0.27716729044914246,63.555694580078125
1.0,0.6210012435913086,0.291819304227829,65.54190063476562
1.0,0.4842491149902344,0.6844933032989502,67.27531433105469
1.0,0.38119661808013916,0.22002443671226501,70.63006591796875
1.0,0.5272283554077148,0.6866911053657532,73.4290771484375
1.0,0.2420024573802948,0.26739928126335144,76.11625671386719
1.0,0.6703296899795532,0.384615421295166,78.50752258300781
1.0,0.46056169271469116,0.6937729120254517,79.92182922363281
1.0,0.2888889014720917,0.22490844130516052,82.7169189453125
1.0,0.6405372619628906,0.6578754782676697,85.65815734863281
1.0,0.21636143326759338,0.3052503168582916,88.46614074707031
1.0,0.6671550869941711,0.37533581256866455,91.03971862792969
1.0,0.6896215081214905,0.5538461804389954,91.58843994140625
1.0,0.20390722155570984,0.40610504150390625,87.85655212402344
1.0,0.20879122614860535,0.3382173478603363,81.92637634277344
1.0,0.6100122332572937,0.29108670353889465,78.04415893554688
1.0,0.43785107135772705,0.2170940339565277,77.18801879882812
1.0,0.5484737753868103,0.24835166335105896,77.74661254882812
1.0,0.20854702591896057,0.398779034614563,75.35279846191406
1.0,0.5089133381843567,0.23150184750556946,71.20425415039062
1.0,0.6764346957206726,0.5706959962844849,66.50531005859375
1.0,0.3731379806995392,0.2212454378604889,64.24598693847656
1.0,0.2835164964199066,0.25323566794395447,63.72875213623047
1.0,0.24126985669136047,0.5479853749275208,62.04734802246094
1.0,0.6202686429023743,0.29328450560569763,59.20825958251953
1.0,0.514041543006897,0.6852259039878845,54.564186096191406
1.0,0.42710626125335693,0.2202686369419098,51.963539123535156
1.0,0.2151404321193695,0.432478666305542,50.06980895996094
1.0,0.36849817633628845,0.6715506911277771,48.78929901123047
1.0,0.6561660766601562,0.3433455526828766,46.88233947753906
1.0,0.33772894740104675,0.6566544771194458,42.608177185058594
1.0,0.4991453289985657,0.22271063923835754,39.75151062011719
1.0,0.22857144474983215,0.5094017386436462,37.10298156738281
1.0,0.531379759311676,0.6930403113365173,35.69261169433594
1.0,0.6231990456581116,0.3023199141025543,34.125892639160156
1.0,0.2576312720775604,0.5667887926101685,30.503742218017578
1.0,0.624908447265625,0.3045177161693573,27.849266052246094
1.0,0.2083028256893158,0.43687427043914795,24.905776977539062
1.0,0.5797314047813416,0.6886447072029114,22.992202758789062
1.0,0.6200244426727295,0.3006105124950409,21.550933837890625
1.0,0.22197803854942322,0.5084249377250671,18.254554748535156
1.0,0.6771672964096069,0.40927964448928833,15.719171524047852
1.0,0.20757022500038147,0.3907204270362854,12.577789306640625
1.0,0.5572649836540222,0.6862027049064636,10.478784561157227
1.0,0.6229548454284668,0.2976801097393036,8.979612350463867
1.0,0.21660563349723816,0.4761905074119568,5.844700813293457
1.0,0.686935305595398,0.45079368352890015,3.2951903343200684
1.0,0.2202686369419098,0.3738705813884735,0.10600727796554565
1.0,0.5743589997291565,0.668376088142395,-2.1623737812042236
1.0,0.6000000238418579,0.27326008677482605,-3.7174251079559326
1.0,0.2161172330379486,0.4600732922554016,-6.643045425415039
1.0,0.684737503528595,0.4920635223388672,-9.133918762207031
1.0,0.21880343556404114,0.38241761922836304,-12.514669418334961
1.0,0.6146520376205444,0.6520146727561951,-14.856527328491211
1.0,0.5511599779129028,0.24078145623207092,-16.53164291381836
1.0,0.22393164038658142,0.4818071126937866,-19.325241088867188
1.0,0.6835165023803711,0.553113579750061,-21.514667510986328
1.0,0.22490844130516052,0.3125763237476349,-24.70458221435547
1.0,0.627106249332428,0.6637362837791443,-27.429325103759766
1.0,0.4771673083305359,0.21758243441581726,-29.464611053466797
1.0,0.22246643900871277,0.4830281138420105,-31.892032623291016
1.0,0.6786324977874756,0.6017094254493713,-33.94477462768555
1.0,0.26227107644081116,0.2349206507205963,-36.848812103271484
1.0,0.574847400188446,0.6898657083511353,-39.8328742980957
1.0,0.5040293335914612,0.2280830442905426,-41.889156341552734
1.0,0.22368744015693665,0.5130647420883179,-44.58925247192383
1.0,0.6713064908981323,0.6183150410652161,-46.45842361450195
1.0,0.3213675320148468,0.222222238779068,-49.14103317260742
1.0,0.47472530603408813,0.6891331076622009,-52.11648941040039
1.0,0.5641025900840759,0.25347986817359924,-54.155399322509766
1.0,0.2241758406162262,0.5069597363471985,-57.13191604614258
1.0,0.6720390915870667,0.5821734070777893,-59.11361312866211
1.0,0.33064714074134827,0.231990247964859,-61.68070602416992
1.0,0.4354090690612793,0.6810745000839233,-64.5556640625
1.0,0.5919414162635803,0.2669108808040619,-66.594970703125
1.0,0.22295483946800232,0.5015873312950134,-69.67449951171875
1.0,0.6720390915870667,0.5665445923805237,-71.72236633300781
1.0,0.3096459209918976,0.24420025944709778,-74.38334655761719
1.0,0.4698413014411926,0.6884005069732666,-77.23240661621094
1.0,0.5873016119003296,0.2608058750629425,-79.19515991210938
1.0,0.2280830442905426,0.504273533821106,-82.26519775390625
1.0,0.6732600927352905,0.5907204151153564,-84.22859191894531
1.0,0.3035409152507782,0.2280830442905426,-86.93174743652344
1.0,0.47545790672302246,0.6920635104179382,-89.81404113769531
1.0,0.5633699893951416,0.25225886702537537,-91.86143493652344
1.0,0.22197803854942322,0.4800977110862732,-94.71189880371094
1.0,0.6722832918167114,0.6170940399169922,-96.72879028320312
1.0,0.3523809611797333,0.20561662316322327,-99.22700500488281
1.0,0.4046398401260376,0.6783882975578308,-102.14901733398438
1.0,0.6100122332572937,0.2898657023906708,-104.17532348632812
1.0,0.2122100293636322,0.4739927053451538,-107.23136901855469
1.0,0.6647130846977234,0.6300366520881653,-109.25216674804688
1.0,0.6757020950317383,0.4004884362220764,-109.94033813476562
1.0,0.22393164038658142,0.5054945349693298,-107.29788208007812
1.0,0.25934067368507385,0.5763126015663147,-101.37139892578125
1.0,0.654212474822998,0.6478632688522339,-96.60258483886719
1.0,0.42295485734939575,0.6827839016914368,-95.90736389160156
1.0,0.5159951448440552,0.6952381134033203,-96.19369506835938
1.0,0.20976802706718445,0.4156288504600525,-94.291748046875
1.0,0.6122100353240967,0.672771692276001,-90.16932678222656
1.0,0.6048840284347534,0.27643468976020813,-85.32102966308594
1.0,0.44102567434310913,0.6871795058250427,-83.385986328125
1.0,0.2827838957309723,0.6146520376205444,-82.75445556640625
1.0,0.23980465531349182,0.3052503168582916,-81.12261962890625
1.0,0.6468864679336548,0.6273504495620728,-77.77104187011719
1.0,0.43980467319488525,0.21978023648262024,-73.54931640625
1.0,0.5113553404808044,0.6840049028396606,-71.04631042480469
1.0,0.22197803854942322,0.4947497248649597,-69.59632873535156
1.0,0.35946276783943176,0.2251526415348053,-67.74346923828125
1.0,0.6576312780380249,0.6019536256790161,-65.2874755859375
1.0,0.30695971846580505,0.23638585209846497,-61.73455047607422
1.0,0.5726495981216431,0.6725274920463562,-58.66718292236328
1.0,0.2122100293636322,0.40195363759994507,-56.54463195800781
1.0,0.4153846502304077,0.2180708348751068,-54.86271667480469
1.0,0.6681318879127502,0.6166056394577026,-52.710487365722656
1.0,0.23980465531349182,0.2686202824115753,-49.54645538330078
1.0,0.6317460536956787,0.6688644886016846,-46.24992370605469
1.0,0.2034188210964203,0.3958486318588257,-43.94110870361328
1.0,0.47741150856018066,0.21978023648262024,-41.974517822265625
1.0,0.6778998970985413,0.607570230960846,-40.18537139892578
1.0,0.20561662316322327,0.3748473823070526,-37.53163146972656
1.0,0.6896215081214905,0.5706959962844849,-34.001731872558594
1.0,0.20805862545967102,0.39120882749557495,-31.34222412109375
1.0,0.5269841551780701,0.23321124911308289,-29.16665267944336
1.0,0.6686202883720398,0.617338240146637,-27.582195281982422
1.0,0.2180708348751068,0.45494508743286133,-25.394752502441406
1.0,0.6820513010025024,0.42686206102371216,-21.861751556396484
1.0,0.22490844130516052,0.4969475269317627,-19.3306884765625
1.0,0.5885226130485535,0.26227107644081116,-16.310138702392578
1.0,0.6000000238418579,0.6649572849273682,-14.773397445678711
1.0,0.2183150351047516,0.46862030029296875,-12.903261184692383
1.0,0.6605616807937622,0.3589743673801422,-9.547834396362305
1.0,0.24639806151390076,0.5670329928398132,-7.089317321777344
1.0,0.5960928201675415,0.2708180844783783,-3.6938862800598145
1.0,0.54334557056427,0.678144097328186,-2.034054756164551
1.0,0.22002443671226501,0.35873016715049744,0.25078773498535156
1.0,0.6639804840087891,0.36068376898765564,3.0238749980926514
1.0,0.27838829159736633,0.605372428894043,5.267365455627441
1.0,0.5352869629859924,0.2410256564617157,8.599759101867676
1.0,0.541147768497467,0.6862027049064636,10.552779197692871
1.0,0.21343103051185608,0.32576313614845276,12.966931343078613
1.0,0.6764346957206726,0.40097683668136597,15.742180824279785
1.0,0.3057387173175812,0.6322344541549683,17.683631896972656
1.0,0.4659340977668762,0.2170940339565277,20.81108856201172
1.0,0.6090354323387146,0.6769230961799622,22.926799774169922
1.0,0.20659342408180237,0.3543345630168915,25.391590118408203
1.0,0.66300368309021,0.36434677243232727,28.170028686523438
1.0,0.335286945104599,0.6451770663261414,30.123355865478516
1.0,0.4283272624015808,0.20757022500038147,33.173866271972656
1.0,0.6317460536956787,0.6615384817123413,35.41559600830078
1.0,0.21391943097114563,0.4097680449485779,37.672157287597656
1.0,0.6283272504806519,0.30109891295433044,40.4635009765625
1.0,0.3609279692173004,0.6659340858459473,42.576210021972656
1.0,0.4373626708984375,0.21587303280830383,45.79851531982422
1.0,0.5975580215454102,0.6671550869941711,48.07122802734375
1.0,0.21660563349723816,0.4144078493118286,50.21227264404297
1.0,0.6334554553031921,0.3084249198436737,53.06206512451172
1.0,0.39316242933273315,0.6761904954910278,55.021080017089844
1.0,0.4212454557418823,0.21953603625297546,58.282989501953125
1.0,0.5899878144264221,0.6634920835494995,60.652305603027344
1.0,0.22588524222373962,0.3343101441860199,63.21849822998047
1.0,0.6525030732154846,0.3360195457935333,65.75242614746094
1.0,0.39829063415527344,0.6732600927352905,67.56883239746094
1.0,0.35750916600227356,0.22246643900871277,70.49028015136719
1.0,0.6302808523178101,0.656410276889801,73.11083984375
1.0,0.21074482798576355,0.3360195457935333,75.74880981445312
1.0,0.6717948913574219,0.389011025428772,78.52729797363281
1.0,0.3956044316291809,0.6793650984764099,80.1417236328125
1.0,0.3023199141025543,0.21978023648262024,82.78361511230469
1.0,0.6742368936538696,0.6146520376205444,85.50355529785156
1.0,0.20586082339286804,0.4036630392074585,87.97685241699219
1.0,0.6515262722969055,0.34285715222358704,90.91326904296875
1.0,0.6725274920463562,0.6161172389984131,91.77243041992188
1.0,0.2183150351047516,0.2903541028499603,88.45755004882812
1.0,0.22857144474983215,0.2827838957309723,82.22090148925781
1.0,0.5851038098335266,0.27032968401908875,77.90647888183594
1.0,0.37167277932167053,0.2141636312007904,76.83146667480469
1.0,0.5565323829650879,0.2527472674846649,77.7921142578125
1.0,0.21587303280830383,0.32893773913383484,75.72772216796875
1.0,0.5838828086853027,0.26544567942619324,71.57875061035156
1.0,0.6678876876831055,0.5914530158042908,66.57052612304688
1.0,0.3531135618686676,0.22490844130516052,64.13101196289062
1.0,0.27643468976020813,0.25836387276649475,63.68269348144531
1.0,0.22881564497947693,0.5135531425476074,62.21125793457031
1.0,0.6527472734451294,0.3431013524532318,59.437217712402344
1.0,0.4691087007522583,0.686935305595398,54.70403289794922
1.0,0.4312576651573181,0.2202686369419098,51.98363494873047
1.0,0.21538463234901428,0.4393162727355957,50.03466796875
1.0,0.34945055842399597,0.6647130846977234,48.864219665527344
1.0,0.6732600927352905,0.3926740288734436,47.07353210449219
1.0,0.29792430996894836,0.6280830502510071,42.78977966308594
1.0,0.5201465487480164,0.22930404543876648,39.85467529296875
1.0,0.22881564497947693,0.5101343393325806,37.09888458251953
1.0,0.5196581482887268,0.6935287117958069,35.72771453857422
1.0,0.6456654667854309,0.3340659439563751,34.276634216308594
1.0,0.23589745163917542,0.5221001505851746,30.72441864013672
1.0,0.6439560651779175,0.33089134097099304,27.97403335571289
1.0,0.20708182454109192,0.42808306217193604,24.95022201538086
1.0,0.5736263990402222,0.6898657083511353,23.009143829345703
1.0,0.6376068592071533,0.32283273339271545,21.66207504272461
1.0,0.21001222729682922,0.4620268940925598,18.484432220458984
1.0,0.6862027049064636,0.4471306800842285,15.848854064941406
1.0,0.2083028256893158,0.3755800127983093,12.657472610473633
1.0,0.5521367788314819,0.6864469051361084,10.492382049560547
1.0,0.6363858580589294,0.3125763237476349,9.057092666625977
1.0,0.21147742867469788,0.4356532692909241,6.051645278930664
1.0,0.6886447072029114,0.4937729239463806,3.434849262237549
1.0,0.22466424107551575,0.3531135618686676,0.22410333156585693
1.0,0.5663003921508789,0.6713064908981323,-2.1369071006774902
1.0,0.6102564334869385,0.2825396955013275,-3.6617183685302734
1.0,0.21440783143043518,0.42808306217193604,-6.4760918617248535
